filename,width,height,class,xmin,ymin,xmax,ymax
2020-11-10A.jpg,1024,1024,boton,70,797,84,815
2020-11-10A.jpg,1024,1024,boton,74,670,89,688
2020-11-10A.jpg,1024,1024,boton,351,721,373,744
2020-11-10A.jpg,1024,1024,boton,416,707,439,730
2020-11-10A.jpg,1024,1024,boton,524,672,548,697
2020-11-10A.jpg,1024,1024,boton,554,713,577,737
2020-11-10A.jpg,1024,1024,boton,70,579,85,595
2020-11-10A.jpg,1024,1024,boton,539,301,564,324
2020-11-10A.jpg,1024,1024,boton,474,218,499,242
2020-11-10A.jpg,1024,1024,boton,405,190,428,214
2020-11-10A.jpg,1024,1024,boton,381,182,405,204
2020-11-10A.jpg,1024,1024,boton,443,133,467,159
2020-11-10A.jpg,1024,1024,boton,490,146,511,173
2020-11-10A.jpg,1024,1024,boton,302,42,326,67
2020-11-10A.jpg,1024,1024,boton,528,210,550,228
2020-11-10A.jpg,1024,1024,boton,635,54,658,77
2020-11-10A.jpg,1024,1024,boton,650,84,671,107
2020-11-10A.jpg,1024,1024,boton,647,151,671,176
2020-11-10A.jpg,1024,1024,boton,765,128,791,154
2020-11-10A.jpg,1024,1024,boton,685,191,713,220
2020-11-10A.jpg,1024,1024,boton,720,261,746,285
2020-11-10A.jpg,1024,1024,boton,741,245,766,270
2020-11-10A.jpg,1024,1024,boton,739,362,764,388
2020-11-10A.jpg,1024,1024,boton,794,409,820,434
2020-11-10A.jpg,1024,1024,boton,830,456,857,484
2020-11-10A.jpg,1024,1024,boton,807,497,833,522
2020-11-10A.jpg,1024,1024,boton,902,481,929,507
2020-11-10A.jpg,1024,1024,boton,950,484,979,507
2020-11-10A.jpg,1024,1024,boton,968,431,996,457
2020-11-10A.jpg,1024,1024,boton,589,577,610,598
2020-11-10A.jpg,1024,1024,boton,690,770,714,793
2020-11-10A.jpg,1024,1024,boton,875,773,898,800
2020-11-10A.jpg,1024,1024,boton,896,731,926,756
2020-11-10A.jpg,1024,1024,boton,926,817,952,841
2020-11-10A.jpg,1024,1024,boton,776,797,796,818
2020-11-10A.jpg,1024,1024,boton,773,787,796,801
2020-11-10A.jpg,1024,1024,boton,359,1,386,23
2020-11-10B.jpg,1024,1024,boton,304,42,329,68
2020-11-10B.jpg,1024,1024,boton,361,1,387,25
2020-11-10B.jpg,1024,1024,boton,382,181,409,204
2020-11-10B.jpg,1024,1024,boton,405,190,430,215
2020-11-10B.jpg,1024,1024,boton,444,134,470,161
2020-11-10B.jpg,1024,1024,boton,476,218,501,243
2020-11-10B.jpg,1024,1024,boton,493,150,514,175
2020-11-10B.jpg,1024,1024,boton,542,302,566,324
2020-11-10B.jpg,1024,1024,boton,649,152,672,177
2020-11-10B.jpg,1024,1024,boton,651,85,673,109
2020-11-10B.jpg,1024,1024,boton,635,53,659,79
2020-11-10B.jpg,1024,1024,boton,560,11,581,34
2020-11-10B.jpg,1024,1024,boton,687,193,714,219
2020-11-10B.jpg,1024,1024,boton,531,212,555,231
2020-11-10B.jpg,1024,1024,boton,766,126,792,154
2020-11-10B.jpg,1024,1024,boton,71,580,92,596
2020-11-10B.jpg,1024,1024,boton,76,672,92,691
2020-11-10B.jpg,1024,1024,boton,72,800,87,817
2020-11-10B.jpg,1024,1024,boton,354,723,376,746
2020-11-10B.jpg,1024,1024,boton,420,709,443,732
2020-11-10B.jpg,1024,1024,boton,526,674,551,700
2020-11-10B.jpg,1024,1024,boton,556,714,579,738
2020-11-10B.jpg,1024,1024,boton,693,772,716,795
2020-11-10B.jpg,1024,1024,boton,777,790,799,806
2020-11-10B.jpg,1024,1024,boton,777,800,802,819
2020-11-10B.jpg,1024,1024,boton,877,776,904,801
2020-11-10B.jpg,1024,1024,boton,931,819,956,843
2020-11-10B.jpg,1024,1024,boton,899,733,929,758
2020-11-10B.jpg,1024,1024,boton,591,579,612,599
2020-11-10B.jpg,1024,1024,boton,810,498,834,524
2020-11-10B.jpg,1024,1024,boton,834,459,858,485
2020-11-10B.jpg,1024,1024,boton,905,484,931,509
2020-11-10B.jpg,1024,1024,boton,954,487,979,507
2020-11-10B.jpg,1024,1024,boton,971,430,1002,457
2020-11-10B.jpg,1024,1024,boton,796,412,822,434
2020-11-10B.jpg,1024,1024,boton,740,363,767,387
2020-11-10B.jpg,1024,1024,boton,722,262,749,285
2020-11-10B.jpg,1024,1024,boton,744,247,768,270
2020-11-10B.jpg,1024,1024,boton,974,396,993,419
2020-11-10B.jpg,1024,1024,boton,88,673,99,690
2020-11-10C.jpg,1024,1024,boton,110,13,132,43
2020-11-10C.jpg,1024,1024,boton,408,713,433,744
2020-11-10C.jpg,1024,1024,boton,451,704,481,735
2020-11-10C.jpg,1024,1024,boton,525,408,538,431
2020-11-10C.jpg,1024,1024,boton,456,350,475,370
2020-11-10C.jpg,1024,1024,boton,463,821,491,851
2020-11-10C.jpg,1024,1024,boton,391,858,422,889
2020-11-10C.jpg,1024,1024,boton,558,1002,592,1024
2020-11-10C.jpg,1024,1024,boton,774,391,798,416
2020-11-10C.jpg,1024,1024,boton,623,496,645,519
2020-11-10C.jpg,1024,1024,boton,895,483,922,509
2020-11-10C.jpg,1024,1024,boton,690,742,713,770
2020-11-10C.jpg,1024,1024,boton,694,818,721,844
2020-11-10C.jpg,1024,1024,boton,778,830,804,857
2020-11-10C.jpg,1024,1024,boton,803,923,831,949
2020-11-10C.jpg,1024,1024,boton,702,996,728,1022
2020-11-10C.jpg,1024,1024,boton,609,967,631,991
2020-11-10D.jpg,1024,1024,boton,707,490,722,510
2020-11-10D.jpg,1024,1024,boton,812,274,834,299
2020-11-10D.jpg,1024,1024,boton,688,639,707,653
2020-11-10E.jpg,1024,1024,boton,24,97,41,112
2020-11-10E.jpg,1024,1024,boton,50,587,69,604
2020-11-10E.jpg,1024,1024,boton,838,920,868,950
2020-11-10E.jpg,1024,1024,boton,861,916,882,939
2020-11-10E.jpg,1024,1024,boton,995,912,1024,943
2020-11-10E.jpg,1024,1024,boton,993,785,1023,809
2020-11-10E.jpg,1024,1024,boton,787,673,820,702
2020-11-10E.jpg,1024,1024,boton,748,661,777,688
2020-11-10E.jpg,1024,1024,boton,899,575,922,599
2020-11-10E.jpg,1024,1024,boton,877,523,905,547
2020-11-10E.jpg,1024,1024,boton,984,518,1013,543
2020-11-10E.jpg,1024,1024,boton,922,466,947,491
2020-11-10E.jpg,1024,1024,boton,905,463,927,487
2020-11-10E.jpg,1024,1024,boton,864,370,891,394
2020-11-10E.jpg,1024,1024,boton,923,351,952,374
2020-11-10E.jpg,1024,1024,boton,942,325,971,351
2020-11-10E.jpg,1024,1024,boton,800,184,827,212
2020-11-10E.jpg,1024,1024,boton,808,166,829,187
2020-11-10E.jpg,1024,1024,boton,789,107,818,130
2020-11-10E.jpg,1024,1024,boton,832,38,861,66
2020-11-10E.jpg,1024,1024,boton,902,87,926,113
2020-11-10E.jpg,1024,1024,boton,935,109,959,132
2020-11-10E.jpg,1024,1024,boton,856,18,884,41
2020-11-10F.jpg,1280,720,boton,1126,44,1143,61
2020-11-10F.jpg,1280,720,boton,929,119,952,139
2020-11-10F.jpg,1280,720,boton,849,49,874,67
2020-11-10F.jpg,1280,720,boton,738,157,752,170
2020-11-10F.jpg,1280,720,boton,879,21,898,34
2020-11-10F.jpg,1280,720,boton,1028,161,1049,180
2020-11-10F.jpg,1280,720,boton,1093,150,1113,168
2020-11-10F.jpg,1280,720,boton,1165,105,1188,129
2020-11-10F.jpg,1280,720,boton,742,293,758,308
2020-11-10F.jpg,1280,720,boton,779,352,792,363
2020-11-10F.jpg,1280,720,boton,752,396,765,408
2020-11-10F.jpg,1280,720,boton,779,401,792,413
2020-11-10F.jpg,1280,720,boton,1252,405,1264,418
2020-11-10F.jpg,1280,720,boton,1023,425,1034,435
2020-11-10F.jpg,1280,720,boton,665,275,679,285
2020-11-10F.jpg,1280,720,boton,660,297,672,312
2020-11-10F.jpg,1280,720,boton,570,351,586,364
2020-11-10F.jpg,1280,720,boton,397,414,411,425
2020-11-10F.jpg,1280,720,boton,357,420,373,435
2020-11-10F.jpg,1280,720,boton,357,339,373,353
2020-11-10F.jpg,1280,720,boton,381,340,394,349
2020-11-10F.jpg,1280,720,boton,537,501,551,512
2020-11-10F.jpg,1280,720,boton,585,512,597,522
2020-11-10F.jpg,1280,720,boton,423,542,435,554
2020-11-10F.jpg,1280,720,boton,396,550,410,560
2020-11-10F.jpg,1280,720,boton,451,548,461,556
2020-11-10F.jpg,1280,720,boton,456,536,465,543
2020-11-10F.jpg,1280,720,boton,263,526,279,540
2020-11-10F.jpg,1280,720,boton,247,521,261,531
2020-11-10F.jpg,1280,720,boton,166,355,184,367
2020-11-10F.jpg,1280,720,boton,70,375,86,390
2020-11-10F.jpg,1280,720,boton,168,233,180,248
2020-11-10F.jpg,1280,720,boton,199,158,217,171
2020-11-10G.jpg,1280,720,boton,1206,100,1257,137
2020-11-10G.jpg,1280,720,boton,1229,157,1271,188
2020-11-10G.jpg,1280,720,boton,1071,228,1106,251
2020-11-10G.jpg,1280,720,boton,1187,265,1210,291
2020-11-10G.jpg,1280,720,boton,1062,308,1086,328
2020-11-10G.jpg,1280,720,boton,1029,305,1055,322
2020-11-10G.jpg,1280,720,boton,1054,202,1081,224
2020-11-10G.jpg,1280,720,boton,991,191,1017,214
2020-11-10G.jpg,1280,720,boton,1025,200,1042,223
2020-11-10G.jpg,1280,720,boton,809,157,851,186
2020-11-10G.jpg,1280,720,boton,930,193,953,217
2020-11-10G.jpg,1280,720,boton,782,210,817,236
2020-11-10G.jpg,1280,720,boton,686,168,715,198
2020-11-10G.jpg,1280,720,boton,736,286,757,303
2020-11-10G.jpg,1280,720,boton,747,356,771,377
2020-11-10G.jpg,1280,720,boton,676,358,692,372
2020-11-10G.jpg,1280,720,boton,1084,575,1098,589
2020-11-10G.jpg,1280,720,boton,1113,562,1127,576
2020-11-10G.jpg,1280,720,boton,835,547,850,560
2020-11-10G.jpg,1280,720,boton,855,531,871,544
2020-11-10G.jpg,1280,720,boton,694,507,712,526
2020-11-10G.jpg,1280,720,boton,829,654,841,668
2020-11-10G.jpg,1280,720,boton,1147,630,1163,642
2020-11-10G.jpg,1280,720,boton,947,678,961,689
2020-11-10G.jpg,1280,720,boton,611,223,641,248
2020-11-10G.jpg,1280,720,boton,599,16,637,54
2020-11-10G.jpg,1280,720,boton,490,19,528,45
2020-11-10G.jpg,1280,720,boton,348,105,374,124
2020-11-10G.jpg,1280,720,boton,547,337,564,350
2020-11-10G.jpg,1280,720,boton,433,379,454,399
2020-11-10G.jpg,1280,720,boton,567,448,583,461
2020-11-10G.jpg,1280,720,boton,565,464,581,479
2020-11-10G.jpg,1280,720,boton,557,485,572,498
2020-11-10G.jpg,1280,720,boton,543,478,559,491
2020-11-10G.jpg,1280,720,boton,554,468,566,480
2020-11-10G.jpg,1280,720,boton,555,457,569,471
2020-11-10G.jpg,1280,720,boton,554,656,566,669
2020-11-10G.jpg,1280,720,boton,491,662,505,673
2020-11-10G.jpg,1280,720,boton,484,575,496,585
2020-11-10G.jpg,1280,720,boton,519,569,535,579
2020-11-10G.jpg,1280,720,boton,561,574,574,585
2020-11-10G.jpg,1280,720,boton,432,504,443,515
2020-11-10G.jpg,1280,720,boton,349,467,372,485
2020-11-10G.jpg,1280,720,boton,324,461,345,476
2020-11-10G.jpg,1280,720,boton,322,432,341,448
2020-11-10G.jpg,1280,720,boton,455,440,473,459
2020-11-10G.jpg,1280,720,boton,372,448,393,464
2020-11-10G.jpg,1280,720,boton,456,499,474,515
2020-11-10G.jpg,1280,720,boton,269,420,290,436
2020-11-10G.jpg,1280,720,boton,298,400,320,419
2020-11-10G.jpg,1280,720,boton,232,399,249,412
2020-11-10G.jpg,1280,720,boton,191,453,210,466
2020-11-10G.jpg,1280,720,boton,110,407,129,423
2020-11-10G.jpg,1280,720,boton,214,335,232,350
2020-11-10G.jpg,1280,720,boton,139,256,163,272
2020-11-10G.jpg,1280,720,boton,16,303,43,324
2020-11-10G.jpg,1280,720,boton,73,151,99,172
2020-11-10G.jpg,1280,720,boton,221,138,244,152
2020-11-10G.jpg,1280,720,boton,244,128,271,150
2020-11-10G.jpg,1280,720,boton,341,83,362,104
2020-11-20A.jpg,770,1024,boton,717,38,737,64
2020-11-20A.jpg,770,1024,boton,702,9,725,38
2020-11-20A.jpg,770,1024,boton,722,309,750,338
2020-11-20A.jpg,770,1024,boton,556,955,579,975
2020-11-20A.jpg,770,1024,boton,632,1001,656,1021
2020-11-20A.jpg,770,1024,boton,338,438,353,455
